{
    "gpiod" : {
        "input" : {
            "pin"      : 4,
            "short"    : 1.0,
            "long"     : 2.0,
            "verylong" : 3.0
        },
        "notif" : {
            "peer" : "/tmp/nmead.usock"
        }
    },
    "main" : {
        "uart" : {
            "dev" : "/dev/ttyAMA0",
            "baud" : 9600
        },
        "tcp" : {
            "bind" : "0.0.0.0",
            "port" : 9898,
            "maxconn" : 10,
            "bufsz" : 1024
        },
        "udp" : {
            "bind" : "/tmp/nmead.usock",
            "bufsz" : 1024
        },
        "buf" : {
            "size" : 1024
        },
        "recorder" : {
            "dir" : "/home/pi/projects/pyro/__nmea_out"
        },
        "indicator" : {
            "ready" : {
                "pin" : 17
            },
            "record" : {
                "pin" : 27
            }
        }
    }
}
